"서비스구분","서비스ID","대분류명","소분류명","서비스상태","서비스명","결제방법","장소명","서비스대상","바로가기URL","장소X좌표","장소Y좌표","서비스개시시작일시","서비스개시종료일시","접수시작일시","접수종료일시","지역명"
"자체","S190117135948589927","시설대관","다목적실","접수중","(은평구)대조동 자치회관 2층 다목적실","유료","대조동 자치회관","제한없음","http://yeyak.seoul.go.kr/reservation/view.web?rsvsvcid=S190117135948589927","37.61417553656754","126.92080700441551","2020-01-01 00:00:00.0","2020-12-31 00:00:00.0","2020-01-01 00:00:00.0","2020-12-31 00:00:00.0","은평구"
"자체","S190117151338669172","시설대관","기타","접수중","대조동 자치회관 4층 생활체육실","유료","대조동 자치회관","제한없음","http://yeyak.seoul.go.kr/reservation/view.web?rsvsvcid=S190117151338669172","37.61417553656754","126.92080700441551","2020-01-01 00:00:00.0","2020-12-31 00:00:00.0","2020-01-01 00:00:00.0","2020-12-31 00:00:00.0","은평구"
"자체","S190121164635589922","시설대관","기타","접수중","대조동 자치회관 3층 컴퓨터실","유료","대조동 자치회관","제한없음","http://yeyak.seoul.go.kr/reservation/view.web?rsvsvcid=S190121164635589922","37.61417553656754","126.92080700441551","2020-01-01 00:00:00.0","2020-12-31 00:00:00.0","2020-01-01 00:00:00.0","2020-12-31 00:00:00.0","은평구"
"자체","S200122161706458817","시설대관","강당","접수중","(은평구) 신사2동 자치회관 4층 강당 ","유료(요금안내문의)","신사2동 자치회관","제한없음","http://yeyak.seoul.go.kr/reservation/view.web?rsvsvcid=S200122161706458817","37.59025761859748","126.90806045938194","2020-01-01 00:00:00.0","2020-12-31 00:00:00.0","2020-01-01 09:00:00.0","2020-12-31 18:09:00.0","은평구"
"자체","S200211173958900520","시설대관","강의실","접수중","신사2동 자치회관 3층 1층 강의실","유료(요금안내문의)","신사2동 자치회관","제한없음","http://yeyak.seoul.go.kr/reservation/view.web?rsvsvcid=S200211173958900520","37.59025761859748","126.90806045938194","2020-01-01 00:00:00.0","2020-12-31 00:00:00.0","2020-01-01 00:00:00.0","2020-12-31 00:00:00.0","은평구"
"자체","S200211175202135869","시설대관","강의실","접수중","(은평구) 신사2동 자치회관 3층 2강의실","유료","신사2동 자치회관","제한없음","http://yeyak.seoul.go.kr/reservation/view.web?rsvsvcid=S200211175202135869","37.59025761859748","126.90806045938194","2020-01-01 00:00:00.0","2020-12-31 00:00:00.0","2020-01-01 09:00:00.0","2020-12-31 18:00:00.0","은평구"
"자체","S181224095419999873","시설대관","강의실","접수중","(은평구) 진관동 자치회관 음악교실","유료(요금안내문의)","진관동 자치회관","제한없음(서울시 관련시민-상세정보 확인)","http://yeyak.seoul.go.kr/reservation/view.web?rsvsvcid=S181224095419999873","37.63491690590124","126.9211078844422","2020-01-01 00:00:00.0","2020-12-31 00:00:00.0","2020-01-01 09:00:00.0","2020-12-31 18:00:00.0","은평구"
"자체","S181224100213027521","시설대관","강의실","접수중","(은평구) 진관동 자치회관 정보화교실","유료(요금안내문의)","진관동 자치회관","제한없음(서울시 관련시민-상세정보 확인)","http://yeyak.seoul.go.kr/reservation/view.web?rsvsvcid=S181224100213027521","37.63491690590124","126.9211078844422","2020-01-01 00:00:00.0","2020-12-31 00:00:00.0","2020-01-01 09:00:00.0","2020-12-31 18:00:00.0","은평구"
"자체","S181224100822765154","시설대관","강의실","접수중","(은평구) 진관동 자치회관 지혜교실","유료(요금안내문의)","진관동 자치회관","제한없음(서울시 관련시민-상세정보 확인)","http://yeyak.seoul.go.kr/reservation/view.web?rsvsvcid=S181224100822765154","37.63491690590124","126.9211078844422","2020-01-01 00:00:00.0","2020-12-31 00:00:00.0","2020-01-01 09:00:00.0","2020-12-31 20:00:00.0","은평구"
"자체","S181224100958159863","시설대관","다목적실","접수중","(은평구) 진관동 자치회관 기쁨홀","유료(요금안내문의)","진관동 자치회관","제한없음(서울시 관련시민-상세정보 확인)","http://yeyak.seoul.go.kr/reservation/view.web?rsvsvcid=S181224100958159863","37.63491690590124","126.9211078844422","2020-01-01 00:00:00.0","2020-12-31 00:00:00.0","2020-01-01 09:00:00.0","2020-12-31 18:00:00.0","은평구"
"자체","S181224101122587867","시설대관","강의실","접수중","(은평구) 진관동 자치회관 어학교실","유료(요금안내문의)","진관동 자치회관","제한없음","http://yeyak.seoul.go.kr/reservation/view.web?rsvsvcid=S181224101122587867","37.63491690590124","126.9211078844422","2020-01-01 00:00:00.0","2020-12-31 00:00:00.0","2020-01-01 09:00:00.0","2020-12-31 18:00:00.0","은평구"
"자체","S181224101821393535","시설대관","강의실","접수중","(은평구) 진관동 자치회관 새싹교실","유료(요금안내문의)","진관동 자치회관","제한없음(서울시 관련시민-상세정보 확인)","http://yeyak.seoul.go.kr/reservation/view.web?rsvsvcid=S181224101821393535","37.63491690590124","126.9211078844422","2020-01-01 00:00:00.0","2020-12-31 00:00:00.0","2020-01-01 09:00:00.0","2020-12-31 18:00:00.0","은평구"
"자체","S200102142945318928","시설대관","강의실","접수중","(은평구) 진관동 자치회관 솜씨교실","유료(요금안내문의)","진관동 자치회관","제한없음","http://yeyak.seoul.go.kr/reservation/view.web?rsvsvcid=S200102142945318928","37.63491690590124","126.9211078844422","2020-01-02 00:00:00.0","2020-12-31 00:00:00.0","2020-01-02 09:00:00.0","2020-12-31 18:00:00.0","은평구"
"자체","S190214092207138206","시설대관","다목적실","접수중","(은평구) 신사1동 자치회관 3층 다목적실","유료(요금안내문의)","신사1동 자치회관","제한없음","http://yeyak.seoul.go.kr/reservation/view.web?rsvsvcid=S190214092207138206","37.597792731552055","126.91176084682777","2020-01-01 00:00:00.0","2020-12-31 00:00:00.0","2020-01-01 09:00:00.0","2020-12-31 18:00:00.0","은평구"
"자체","S190214124421386810","시설대관","회의실","접수중"," (은평구) 신사1동 자치회관 3층 동아리방 대관","유료(요금안내문의)","신사1동 자치회관","제한없음","http://yeyak.seoul.go.kr/reservation/view.web?rsvsvcid=S190214124421386810","37.597792731552055","126.91176084682777","2020-01-01 00:00:00.0","2020-12-31 00:00:00.0","2020-01-01 09:00:00.0","2020-12-31 18:00:00.0","은평구"
"자체","S190214132702131390","시설대관","강당","접수중","(은평구) 신사1동 자치회관 4층 강당","유료(요금안내문의)","신사1동 자치회관","제한없음","http://yeyak.seoul.go.kr/reservation/view.web?rsvsvcid=S190214132702131390","37.597792731552055","126.91176084682777","2020-01-01 00:00:00.0","2020-12-31 00:00:00.0","2020-01-01 09:00:00.0","2020-12-31 18:00:00.0","은평구"
"자체","S200103135645373482","시설대관","주민사랑방","접수종료","(은평구)불광1동 1층 자원봉사실 시설대관","유료","불광1동 자치회관","제한없음","http://yeyak.seoul.go.kr/reservation/view.web?rsvsvcid=S200103135645373482","37.61035156278993","126.93208687436907","2020-01-03 00:00:00.0","2020-12-31 00:00:00.0","2020-01-03 09:00:00.0","2020-02-23 18:00:00.0","은평구"
"자체","S200103140300212982","시설대관","기타","접수종료","(은평구)불광1동 옥상 유휴공간 시설대관","유료","불광1동 자치회관","제한없음","http://yeyak.seoul.go.kr/reservation/view.web?rsvsvcid=S200103140300212982","37.61035156278993","126.93208687436907","2020-01-03 00:00:00.0","2020-12-31 00:00:00.0","2020-01-03 09:00:00.0","2020-02-23 18:00:00.0","은평구"
"자체","S200103140641778049","시설대관","강의실","접수종료","(은평구) 불광1동 자치회관 제1강의실(2층)","유료","불광1동 자치회관","제한없음(서울시 관련시민-상세정보 확인)","http://yeyak.seoul.go.kr/reservation/view.web?rsvsvcid=S200103140641778049","37.61035156278993","126.93208687436907","2020-01-03 00:00:00.0","2020-12-31 00:00:00.0","2020-01-03 09:00:00.0","2020-02-23 18:00:00.0","은평구"
"자체","S200104105514308785","시설대관","다목적실","접수종료","(은평구) 불광1동 자치회관 다목적실","유료","불광1동 자치회관","제한없음","http://yeyak.seoul.go.kr/reservation/view.web?rsvsvcid=S200104105514308785","37.61035156278993","126.93208687436907","2020-01-04 00:00:00.0","2020-12-31 00:00:00.0","2020-01-04 09:00:00.0","2020-02-23 18:00:00.0","은평구"
"자체","S200104115949047169","시설대관","강의실","접수종료","(은평구) 불광1동 자치회관 제2강의실(3층)","유료","불광1동 자치회관","제한없음","http://yeyak.seoul.go.kr/reservation/view.web?rsvsvcid=S200104115949047169","37.61035156278993","126.93208687436907","2020-01-04 00:00:00.0","2020-12-31 00:00:00.0","2020-01-04 09:00:00.0","2020-02-23 18:00:00.0","은평구"
"자체","S200204175457666036","시설대관","다목적실","예약일시중지","(은평구) 응암1동 문화의집 다목적실(3층)","유료","응암1동 자치회관","제한없음","http://yeyak.seoul.go.kr/reservation/view.web?rsvsvcid=S200204175457666036","37.60069696582687","126.9267461065189","2020-02-04 00:00:00.0","2020-12-31 00:00:00.0","2020-02-04 09:00:00.0","2020-12-31 18:00:00.0","은평구"
"자체","S200204182341251827","시설대관","회의실","예약일시중지","(은평구) 응암1동 문화의집 창작실(2층)","유료","응암1동 자치회관","제한없음(창작실)","http://yeyak.seoul.go.kr/reservation/view.web?rsvsvcid=S200204182341251827","37.60069696582687","126.9267461065189","2020-02-04 00:00:00.0","2020-12-31 00:00:00.0","2020-02-04 09:00:00.0","2020-12-31 18:00:00.0","은평구"
"자체","S200320171229541679","시설대관","강의실","접수중","(은평구) 역촌동자치회관 지층 강의실","무료","역촌동 자치회관","제한없음","http://yeyak.seoul.go.kr/reservation/view.web?rsvsvcid=S200320171229541679","37.604401242839224","126.9151006360027","2020-01-01 00:00:00.0","2020-12-31 00:00:00.0","2020-01-01 09:00:00.0","2020-12-31 06:00:00.0","은평구"
"자체","S200320172521600575","시설대관","다목적실","접수중","(은평구) 역촌동자치회관 2층 제2강좌실","무료","역촌동 자치회관","제한없음","http://yeyak.seoul.go.kr/reservation/view.web?rsvsvcid=S200320172521600575","37.604401242839224","126.9151006360027","2020-01-01 00:00:00.0","2020-12-31 00:00:00.0","2020-01-01 09:00:00.0","2020-12-31 21:00:00.0","은평구"
"자체","S191221110109070732","시설대관","다목적실","접수중","응암3동주민센터 4층 다목적실","유료(요금안내문의)","응암3동 자치회관","제한없음","http://yeyak.seoul.go.kr/reservation/view.web?rsvsvcid=S191221110109070732","37.5922311003222","126.91571684143238","2020-01-01 00:00:00.0","2020-12-31 00:00:00.0","2019-12-21 09:00:00.0","2020-12-31 18:00:00.0","은평구"
"자체","S191221110621554708","시설대관","기타","접수중","응암3동주민센터 3층 요리교실(주간)","유료(요금안내문의)","응암3동 자치회관","제한없음","http://yeyak.seoul.go.kr/reservation/view.web?rsvsvcid=S191221110621554708","37.5922311003222","126.91571684143238","2020-01-01 00:00:00.0","2020-12-31 00:00:00.0","2019-12-21 09:00:00.0","2020-12-31 18:00:00.0","은평구"
"자체","S191221110818488563","시설대관","주민사랑방","접수중","응암3동주민센터 2층 문화사랑방","유료(요금안내문의)","응암3동 자치회관","제한없음","http://yeyak.seoul.go.kr/reservation/view.web?rsvsvcid=S191221110818488563","37.5922311003222","126.91571684143238","2020-01-01 00:00:00.0","2020-12-31 00:00:00.0","2019-12-21 09:00:00.0","2020-12-31 18:00:00.0","은평구"
"자체","S200105145012534778","시설대관","다목적실","접수중","(은평구) 갈현2동 자치회관 3층 다목적실 대관","유료(요금안내문의)","갈현2동 자치회관","제한없음","http://yeyak.seoul.go.kr/reservation/view.web?rsvsvcid=S200105145012534778","37.61867699461269","126.9157776128383","2020-01-01 00:00:00.0","2020-12-31 00:00:00.0","2020-01-01 00:00:00.0","2020-12-31 00:00:00.0","은평구"
"자체","S200105150333000847","시설대관","기타","접수중","(은평구) 갈현2동 자치회관 3층 소강좌실 대관","유료(요금안내문의)","갈현2동 자치회관","제한없음","http://yeyak.seoul.go.kr/reservation/view.web?rsvsvcid=S200105150333000847","37.61867699461269","126.9157776128383","2020-01-01 00:00:00.0","2020-12-31 00:00:00.0","2020-01-01 00:00:00.0","2020-12-31 18:00:00.0","은평구"
"자체","S200105151655086921","시설대관","강의실","접수중","(은평구) 갈현2동 자치회관 4층 컴퓨터실 대관","유료(요금안내문의)","갈현2동 자치회관","제한없음","http://yeyak.seoul.go.kr/reservation/view.web?rsvsvcid=S200105151655086921","37.61867699461269","126.9157776128383","2020-01-01 00:00:00.0","2020-12-31 00:00:00.0","2020-01-01 09:00:00.0","2020-12-31 18:00:00.0","은평구"
"자체","S200105152004798279","시설대관","기타","접수중","(은평구) 갈현2동 자치회관 4층 사례회의실 대관","유료(요금안내문의)","갈현2동 자치회관","제한없음","http://yeyak.seoul.go.kr/reservation/view.web?rsvsvcid=S200105152004798279","37.61867699461269","126.9157776128383","2020-01-01 00:00:00.0","2020-12-31 00:00:00.0","2020-01-01 09:00:00.0","2020-12-31 18:00:00.0","은평구"
"자체","S190328164003545621","시설대관","기타","접수중","수색동주민센터 4층 공유주방 시설대관","유료(요금안내문의)","수색동 자치회관","제한없음","http://yeyak.seoul.go.kr/reservation/view.web?rsvsvcid=S190328164003545621","37.5835205268528","126.89367222426786","2020-01-02 00:00:00.0","2020-12-31 00:00:00.0","2020-01-02 09:00:00.0","2020-12-31 20:30:00.0","은평구"
"자체","S191230152119692327","시설대관","강당","접수중","수색동주민센터 4층 다목적 강당 시설대관","유료(요금안내문의)","수색동 자치회관","제한없음","http://yeyak.seoul.go.kr/reservation/view.web?rsvsvcid=S191230152119692327","37.5835205268528","126.89367222426786","2020-01-02 00:00:00.0","2020-12-31 00:00:00.0","2020-01-02 09:00:00.0","2020-12-31 18:00:00.0","은평구"
"자체","S191230152547316388","시설대관","다목적실","접수중","수색동주민센터 3층 GX룸 시설대관","유료(요금안내문의)","수색동 자치회관","제한없음","http://yeyak.seoul.go.kr/reservation/view.web?rsvsvcid=S191230152547316388","37.5835205268528","126.89367222426786","2020-01-02 00:00:00.0","2020-12-31 00:00:00.0","2020-01-02 09:00:00.0","2020-12-31 18:00:00.0","은평구"
"자체","S191230152904451876","시설대관","강의실","접수중","수색동주민센터 3층 1강의실 시설대관","유료(요금안내문의)","수색동 자치회관","제한없음","http://yeyak.seoul.go.kr/reservation/view.web?rsvsvcid=S191230152904451876","37.5835205268528","126.89367222426786","2020-01-02 00:00:00.0","2020-12-31 00:00:00.0","2020-01-02 09:00:00.0","2020-12-31 20:00:00.0","은평구"
"자체","S191230153116739820","시설대관","강의실","접수중","수색동주민센터 3층 2?3강의실 시설대관","유료(요금안내문의)","수색동 자치회관","제한없음","http://yeyak.seoul.go.kr/reservation/view.web?rsvsvcid=S191230153116739820","37.5835205268528","126.89367222426786","2020-01-02 00:00:00.0","2020-12-31 00:00:00.0","2020-01-02 09:00:00.0","2020-12-31 18:00:00.0","은평구"
"자체","S191230153645500661","시설대관","회의실","접수중","수색동주민센터 2층 소회의실 시설대관","유료(요금안내문의)","수색동 자치회관","제한없음","http://yeyak.seoul.go.kr/reservation/view.web?rsvsvcid=S191230153645500661","37.5835205268528","126.89367222426786","2020-01-02 00:00:00.0","2020-12-31 00:00:00.0","2020-01-02 09:00:00.0","2020-12-31 20:00:00.0","은평구"
"자체","S191220181308815106","시설대관","다목적실","접수중","(은평구) 불광2동 자치회관 다목적실(월화수목금)","유료","불광2동 자치회관","제한없음","http://yeyak.seoul.go.kr/reservation/view.web?rsvsvcid=S191220181308815106","37.62648719140739","126.92727814606516","2019-12-31 00:00:00.0","2020-12-31 00:00:00.0","2019-12-31 00:00:00.0","2020-12-31 23:00:00.0","은평구"
"자체","S200130113327437819","시설대관","전시실","접수중","(은평구) 증산동 자치회관 시루뫼 작은 갤러리","유료(요금안내문의)","증산동 자치회관","제한없음","http://yeyak.seoul.go.kr/reservation/view.web?rsvsvcid=S200130113327437819","37.5843535057774","126.9070261239897","2019-01-29 00:00:00.0","2020-12-31 00:00:00.0","2020-02-01 09:00:00.0","2020-12-31 18:00:00.0","은평구"
"자체","S200130135001143919","시설대관","다목적실","접수종료","(은평구) 증산동 자치회관 4층 다목적실","유료(요금안내문의)","증산동 자치회관","제한없음","http://yeyak.seoul.go.kr/reservation/view.web?rsvsvcid=S200130135001143919","37.5843535057774","126.9070261239897","2020-01-30 00:00:00.0","2020-12-31 00:00:00.0","2020-01-30 09:00:00.0","2020-12-31 18:00:00.0","은평구"
"자체","S200131083309843879","시설대관","다목적실","예약일시중지","(은평구) 증산동 자치회관 4층 다목적실","유료(요금안내문의)","증산동 자치회관","제한없음","http://yeyak.seoul.go.kr/reservation/view.web?rsvsvcid=S200131083309843879","37.5843535057774","126.9070261239897","2020-01-31 00:00:00.0","2020-12-31 00:00:00.0","2020-01-31 09:00:00.0","2020-12-31 18:00:00.0","은평구"
"자체","S190725143104245083","시설대관","강당","접수중","서울기록원 컨퍼런스 룸 대관.","유료(요금안내문의)","서울기록원","제한없음(100명)","http://yeyak.seoul.go.kr/reservation/view.web?rsvsvcid=S190725143104245083","37.60722465395111","126.93443176349521","2019-09-06 00:00:00.0","2029-09-30 00:00:00.0","2019-09-06 09:00:00.0","2029-09-23 18:00:00.0","은평구"
"자체","S191231130621861835","시설대관","강당","접수중","서울기록원 컨퍼런스 룸 대관.","유료(요금안내문의)","서울기록원","제한없음","http://yeyak.seoul.go.kr/reservation/view.web?rsvsvcid=S191231130621861835","37.60722465395111","126.93443176349521","2020-01-01 00:00:00.0","2021-02-28 00:00:00.0","2020-01-01 00:00:00.0","2021-02-28 00:00:00.0","은평구"
"자체","S200102101450862496","시설대관","다목적실","접수중","(은평구) 녹번동 자치회관 3층 다목적실","유료","녹번동 자치회관","제한없음","http://yeyak.seoul.go.kr/reservation/view.web?rsvsvcid=S200102101450862496","37.60224138296947","126.92991033338504","2020-01-01 00:00:00.0","2020-12-31 00:00:00.0","2020-01-01 00:00:00.0","2020-12-31 00:00:00.0","은평구"
"자체","S200102105015510096","시설대관","강의실","접수중","(은평구) 녹번동 자치회관 3층 제1강의실","유료","녹번동 자치회관","제한없음","http://yeyak.seoul.go.kr/reservation/view.web?rsvsvcid=S200102105015510096","37.60224138296947","126.92991033338504","2020-01-02 00:00:00.0","2020-12-31 00:00:00.0","2020-01-02 09:00:00.0","2020-12-31 18:00:00.0","은평구"
"자체","S200102105817420406","시설대관","강의실","접수중","(은평구) 녹번동 자치회관 3층 제2강의실","유료","녹번동 자치회관","제한없음","http://yeyak.seoul.go.kr/reservation/view.web?rsvsvcid=S200102105817420406","37.60224138296947","126.92991033338504","2020-01-02 00:00:00.0","2020-12-31 00:00:00.0","2020-01-02 09:00:00.0","2020-12-31 23:59:00.0","은평구"
"자체","S200219123416512828","시설대관","강의실","접수중","(은평구) 갈현1동 문화의집 문화창작실","유료","갈현1동 문화의 집","제한없음","http://yeyak.seoul.go.kr/reservation/view.web?rsvsvcid=S200219123416512828","37.6236871299396","126.91668723637625","2020-02-19 00:00:00.0","2020-12-31 00:00:00.0","2020-02-19 09:00:00.0","2020-12-31 18:00:00.0","은평구"
"자체","S200219124827591562","시설대관","다목적실","접수중","(은평구) 갈현1동 문화의집 문화관람실","유료","갈현제1동 문화의집","제한없음","http://yeyak.seoul.go.kr/reservation/view.web?rsvsvcid=S200219124827591562","37.6236871299396","126.91668723637625","2020-02-19 00:00:00.0","2020-12-31 00:00:00.0","2020-02-19 09:00:00.0","2020-12-31 18:00:00.0","은평구"