"서비스구분","서비스ID","대분류명","소분류명","서비스상태","서비스명","결제방법","장소명","서비스대상","바로가기URL","장소X좌표","장소Y좌표","서비스개시시작일시","서비스개시종료일시","접수시작일시","접수종료일시","지역명"
"자체","S191112183640382375","시설대관","녹화/촬영","예약일시중지","2020년 영화촬영1(주간)-반포","유료","반포한강공원","제한없음","http://yeyak.seoul.go.kr/reservation/view.web?rsvsvcid=S191112183640382375","37.507693251","126.9927298532","2019-12-01 00:00:00.0","2020-12-31 00:00:00.0","2019-12-01 00:00:00.0","2020-12-31 00:00:00.0","서초구"
"자체","S191112184455638771","시설대관","녹화/촬영","예약일시중지","2020년 영화촬영1(야간)-반포","유료","반포한강공원","제한없음","http://yeyak.seoul.go.kr/reservation/view.web?rsvsvcid=S191112184455638771","37.507693251","126.9927298532","2019-12-01 00:00:00.0","2020-12-31 00:00:00.0","2019-12-01 00:00:00.0","2020-12-31 00:00:00.0","서초구"
"자체","S191112184756738752","시설대관","녹화/촬영","예약일시중지","2020년 녹화1-반포","유료","반포한강공원","제한없음","http://yeyak.seoul.go.kr/reservation/view.web?rsvsvcid=S191112184756738752","37.507693251","126.9927298532","2019-12-01 00:00:00.0","2020-12-31 00:00:00.0","2019-12-01 00:00:00.0","2020-12-31 00:00:00.0","서초구"
"자체","S191112185027644287","시설대관","녹화/촬영","예약일시중지","2020년 녹화2-반포","유료","반포한강공원","제한없음","http://yeyak.seoul.go.kr/reservation/view.web?rsvsvcid=S191112185027644287","37.507693251","126.9927298532","2019-12-01 00:00:00.0","2020-12-31 00:00:00.0","2019-12-01 00:00:00.0","2020-12-31 00:00:00.0","서초구"
"자체","S191230102400935721","시설대관","강의실","예약일시중지","반포3동주민센터 4층 문화교실3(강의실) 유휴공간","무료","반포3동 주민센터 4층 문화교실3(강의실)","제한없음","http://yeyak.seoul.go.kr/reservation/view.web?rsvsvcid=S191230102400935721","37.51204699576554","127.00561014664976","2020-01-01 00:00:00.0","2020-12-31 00:00:00.0","2020-01-03 09:00:00.0","2020-12-31 18:00:00.0","서초구"
"자체","S200107105507185041","시설대관","주민사랑방","접수중","반포본동 열린상상카페","무료","반포본동 주민센터 2층 열린상상카페","제한없음","http://yeyak.seoul.go.kr/reservation/view.web?rsvsvcid=S200107105507185041","37.50048461225488","126.9860944103207","2020-01-02 00:00:00.0","2020-12-31 00:00:00.0","2020-01-02 09:00:00.0","2020-12-31 18:00:00.0","서초구"
"자체","S191230141457762701","시설대관","강의실","접수중","반포4동 주민센터 취미교실","무료","반포4동 주민센터 취미교실","제한없음","http://yeyak.seoul.go.kr/reservation/view.web?rsvsvcid=S191230141457762701","","","2020-01-02 00:00:00.0","2020-12-31 00:00:00.0","2020-01-02 10:00:00.0","2020-12-31 18:00:00.0","서초구"
"자체","S191224155723086582","시설대관","다목적실","접수중","서울시 서초구 방배3동주민센터 6F 프로그램실1","무료","방배3동주민센터 프로그램실1","제한없음","http://yeyak.seoul.go.kr/reservation/view.web?rsvsvcid=S191224155723086582","37.4784395734","126.9999954777","2019-12-24 00:00:00.0","2020-12-31 00:00:00.0","2019-12-24 00:00:00.0","2020-12-31 18:00:00.0","서초구"
"자체","S191023100054789435","시설대관","다목적실","예약일시중지","서리풀 문화포차-지방공기업평가원(대회의실)","무료","서리풀 문화포차-지방공기업평가원(대회의실)","제한없음","http://yeyak.seoul.go.kr/reservation/view.web?rsvsvcid=S191023100054789435","37.49155429301844","127.00920898164549","2019-11-04 00:00:00.0","2021-10-30 00:00:00.0","2019-11-04 00:00:00.0","2021-10-30 12:00:00.0","서초구"
"자체","S191112201623233100","시설대관","녹화/촬영","예약일시중지","2020년 영화촬영1(주간)-잠원","유료","잠원한강공원>잠원안내센터","제한없음","http://yeyak.seoul.go.kr/reservation/view.web?rsvsvcid=S191112201623233100","37.520750186462806","127.01227135864971","2019-12-01 00:00:00.0","2020-12-31 00:00:00.0","2019-12-01 00:00:00.0","2020-12-31 00:00:00.0","서초구"
"자체","S191112201843352824","시설대관","녹화/촬영","예약일시중지","2020년 영화촬영1(야간)-잠원","유료","잠원한강공원>잠원안내센터","제한없음","http://yeyak.seoul.go.kr/reservation/view.web?rsvsvcid=S191112201843352824","37.520750186462806","127.01227135864971","2019-12-01 00:00:00.0","2020-12-31 00:00:00.0","2019-12-01 00:00:00.0","2020-12-31 00:00:00.0","서초구"
"자체","S191112202133911377","시설대관","녹화/촬영","예약일시중지","2020년 영화촬영2(주간)-잠원","유료","잠원한강공원>잠원안내센터","제한없음","http://yeyak.seoul.go.kr/reservation/view.web?rsvsvcid=S191112202133911377","37.520750186462806","127.01227135864971","2019-12-01 00:00:00.0","2020-12-31 00:00:00.0","2019-12-01 00:00:00.0","2020-12-31 00:00:00.0","서초구"
"자체","S191112202400237681","시설대관","녹화/촬영","예약일시중지","2020년 영화촬영2(야간)-잠원","유료","잠원한강공원>잠원안내센터","제한없음","http://yeyak.seoul.go.kr/reservation/view.web?rsvsvcid=S191112202400237681","37.520750186462806","127.01227135864971","2019-12-01 00:00:00.0","2020-12-31 00:00:00.0","2019-12-01 00:00:00.0","2020-12-31 00:00:00.0","서초구"
"자체","S191112202647166995","시설대관","녹화/촬영","예약일시중지","2020년 녹화1-잠원","유료","잠원한강공원>잠원안내센터","제한없음","http://yeyak.seoul.go.kr/reservation/view.web?rsvsvcid=S191112202647166995","37.520750186462806","127.01227135864971","2019-12-01 00:00:00.0","2020-12-31 00:00:00.0","2019-12-01 00:00:00.0","2020-12-31 00:00:00.0","서초구"
"자체","S191112203023685984","시설대관","녹화/촬영","예약일시중지","2020년 녹화2-잠원","유료","잠원한강공원>잠원안내센터","제한없음","http://yeyak.seoul.go.kr/reservation/view.web?rsvsvcid=S191112203023685984","37.520750186462806","127.01227135864971","2019-12-01 00:00:00.0","2020-12-31 00:00:00.0","2019-12-01 00:00:00.0","2020-12-31 00:00:00.0","서초구"
"자체","S200106140522715193","시설대관","회의실","접수종료","방배1동주민센터 3층 문화사랑방","무료","서울시 서초구 방배1동 주민센터 제1소회의실","제한없음","http://yeyak.seoul.go.kr/reservation/view.web?rsvsvcid=S200106140522715193","37.48336255944229","126.99451410851561","2020-01-06 00:00:00.0","2020-12-31 00:00:00.0","2020-01-06 09:00:00.0","2020-01-30 18:00:00.0","서초구"
"자체","S200128170927170978","시설대관","회의실","예약일시중지","방배1동주민센터 3층 문화사랑방","무료","서울시 서초구 방배1동 주민센터 제1소회의실","제한없음","http://yeyak.seoul.go.kr/reservation/view.web?rsvsvcid=S200128170927170978","37.48336255944229","126.99451410851561","2020-01-28 00:00:00.0","2020-12-31 00:00:00.0","2020-01-28 09:00:00.0","2020-12-31 18:00:00.0","서초구"
"자체","S200103132948488077","시설대관","강당","접수중","서초구 방배2동 주민센터 3층 강당","무료","서초구 방배2동 주민센터","제한없음","http://yeyak.seoul.go.kr/reservation/view.web?rsvsvcid=S200103132948488077","37.47977218480453","126.98556008792184","2020-01-01 00:00:00.0","2020-12-31 00:00:00.0","2020-01-01 09:00:00.0","2020-12-31 18:00:00.0","서초구"
"자체","S200103134750566204","시설대관","강의실","접수중","방배2동 주민센터 4층 문화교실","무료","서초구 방배2동 주민센터","제한없음","http://yeyak.seoul.go.kr/reservation/view.web?rsvsvcid=S200103134750566204","37.47977218480453","126.98556008792184","2020-01-01 00:00:00.0","2020-12-31 00:00:00.0","2020-01-01 09:00:00.0","2020-12-31 18:00:00.0","서초구"
"자체","S200102195737552679","시설대관","회의실","접수중","서초구 서초1동주민센터 2층 소회의실","무료","서초1동 주민센터 2층 소회의실","제한없음","http://yeyak.seoul.go.kr/reservation/view.web?rsvsvcid=S200102195737552679","37.490190724735626","127.01946696284355","2020-01-02 00:00:00.0","2020-12-31 00:00:00.0","2020-01-02 09:00:00.0","2020-12-31 18:00:00.0","서초구"
"자체","S191218095152266964","시설대관","회의실","접수중","서초구 반포1동주민센터 5층 대회의실[평일]","무료","반포1동 주민센터 5층 대회의실","제한없음","http://yeyak.seoul.go.kr/reservation/view.web?rsvsvcid=S191218095152266964","37.50509421840159","127.01337714922394","2020-01-02 00:00:00.0","2020-12-31 00:00:00.0","2020-01-02 10:00:00.0","2020-12-31 18:00:00.0","서초구"
"자체","S191023105101728611","시설대관","다목적실","예약일시중지","서리풀 문화포차-지방공기업평가원【미팅룸(소회의실)】","무료","서리풀 문화포차-지방공기업평가원(소회의실)","제한없음","http://yeyak.seoul.go.kr/reservation/view.web?rsvsvcid=S191023105101728611","37.49155429301844","127.00920898164549","2019-11-04 00:00:00.0","2021-10-30 00:00:00.0","2019-11-04 00:00:00.0","2021-10-30 12:00:00.0","서초구"
"자체","S191227103255907659","시설대관","다목적실","접수중","서초구 반포2동 주민센터 지하1층","무료","반포2동주민센터","제한없음","http://yeyak.seoul.go.kr/reservation/view.web?rsvsvcid=S191227103255907659","37.504586679448366","126.99447184114919","2020-01-01 00:00:00.0","2020-12-31 00:00:00.0","2020-01-01 00:00:00.0","2020-12-31 18:00:00.0","서초구"
"자체","S191227110602823314","시설대관","회의실","접수중","서초구 반포2동 주민센터 작은도서관 소회의실","무료","반포2동주민센터","제한없음","http://yeyak.seoul.go.kr/reservation/view.web?rsvsvcid=S191227110602823314","37.504586679448366","126.99447184114919","2020-01-01 00:00:00.0","2020-12-31 00:00:00.0","2020-01-01 00:00:00.0","2020-12-31 00:00:00.0","서초구"
"자체","S200103104747616729","시설대관","회의실","접수종료","서초구 방배4동주민센터 주민자치회의실","무료","방배4동주민센터 3층 회의실","제한없음","http://yeyak.seoul.go.kr/reservation/view.web?rsvsvcid=S200103104747616729","37.489006347767386","126.99224318905575","2020-01-03 00:00:00.0","2020-12-31 00:00:00.0","2020-01-03 00:00:00.0","2020-01-03 18:00:00.0","서초구"
"자체","S200104150708989645","시설대관","회의실","접수중","서초구 방배4동주민센터 주민자치회의실","무료","방배4동주민센터 3층 회의실","제한없음","http://yeyak.seoul.go.kr/reservation/view.web?rsvsvcid=S200104150708989645","37.489006347767386","126.99224318905575","2020-01-04 00:00:00.0","2020-12-31 00:00:00.0","2020-01-04 00:00:00.0","2020-12-31 18:00:00.0","서초구"
"자체","S191206122254006132","시설대관","회의실","접수중","방배본동주민센터 3층 소회의실","무료","방배본동주민센터 3층 소회의실","제한없음","http://yeyak.seoul.go.kr/reservation/view.web?rsvsvcid=S191206122254006132","37.4941490261","126.98884571","2020-01-01 00:00:00.0","2020-12-31 00:00:00.0","2020-01-01 09:00:00.0","2020-12-29 18:00:00.0","서초구"
"자체","S191119115042598843","시설대관","다목적실","예약일시중지","서리풀 문화포차-서초문화예술회관 3층","무료","서리풀문화포차-서초문화예술회관 3층","제한없음","http://yeyak.seoul.go.kr/reservation/view.web?rsvsvcid=S191119115042598843","37.481829104163374","127.03595831083435","2019-11-19 00:00:00.0","2021-12-31 00:00:00.0","2019-11-19 00:00:00.0","2021-12-31 00:00:00.0","서초구"
"자체","S200518094928197463","시설대관","캠핑장","예약일시중지","바비큐장(6월)","무료","시민의숲","가족","http://yeyak.seoul.go.kr/reservation/view.web?rsvsvcid=S200518094928197463","37.47233267032548","127.03527095162278","2020-05-19 00:00:00.0","2020-06-30 00:00:00.0","2020-05-20 09:00:00.0","2020-06-30 23:59:00.0","서초구"
"자체","S191226165309666639","시설대관","주민사랑방","접수중","서초구 양재1동 자치회관 3층 주민사랑방","무료","양재1동 우면 주민센터","제한없음","http://yeyak.seoul.go.kr/reservation/view.web?rsvsvcid=S191226165309666639","37.47167178098337","127.02667003109755","2020-01-01 00:00:00.0","2020-12-31 00:00:00.0","2020-01-01 00:00:00.0","2020-12-24 00:00:00.0","서초구"
"자체","S191223090042723114","시설대관","강의실","접수중","서초구 서초2동 문화교실2","무료","서초2동주민센터 제2문화교실","제한없음","http://yeyak.seoul.go.kr/reservation/view.web?rsvsvcid=S191223090042723114","37.49207099773131","127.0249494559503","2020-01-01 00:00:00.0","2020-12-31 00:00:00.0","2020-01-01 09:00:00.0","2020-12-31 18:00:00.0","서초구"
"자체","S200106140810708539","시설대관","다목적실","접수종료","방배1동주민센터 제2자치회관 다목적실","무료","방배1동 제2자치회관 다목적실","제한없음","http://yeyak.seoul.go.kr/reservation/view.web?rsvsvcid=S200106140810708539","37.485452792298595","126.99256014600012","2020-01-06 00:00:00.0","2020-12-31 00:00:00.0","2020-01-06 09:00:00.0","2020-01-30 18:00:00.0","서초구"
"자체","S200128140332876530","시설대관","다목적실","예약일시중지","방배1동주민센터 제2자치회관 다목적실","무료","방배1동 제2자치회관 다목적실","제한없음","http://yeyak.seoul.go.kr/reservation/view.web?rsvsvcid=S200128140332876530","37.485452792298595","126.99256014600012","2020-01-28 00:00:00.0","2020-12-31 00:00:00.0","2020-01-28 09:00:00.0","2020-12-31 18:00:00.0","서초구"
"자체","S200106141045047454","시설대관","회의실","접수종료","방배1동 주민센터 2층 소회의실","무료","서울시 서초구 방배1동 주민센터 제2소회의실","제한없음","http://yeyak.seoul.go.kr/reservation/view.web?rsvsvcid=S200106141045047454","37.48336255944229","126.99451410851561","2020-01-06 00:00:00.0","2020-12-31 00:00:00.0","2020-01-06 09:00:00.0","2020-01-30 18:00:00.0","서초구"
"자체","S200121111145266857","시설대관","회의실","예약일시중지","방배1동 주민센터 2층 소회의실","무료","서울시 서초구 방배1동 주민센터 제2소회의실","제한없음","http://yeyak.seoul.go.kr/reservation/view.web?rsvsvcid=S200121111145266857","37.48336255944229","126.99451410851561","2020-01-21 00:00:00.0","2020-12-31 00:00:00.0","2020-01-21 09:00:00.0","2020-12-31 18:00:00.0","서초구"
"자체","S191223141321438655","시설대관","회의실","예약일시중지","양재2동 지하1층 회의실","무료","양재2동 지하1층 회의실","제한없음","http://yeyak.seoul.go.kr/reservation/view.web?rsvsvcid=S191223141321438655","37.4706440308987","127.04128417206887","2020-01-02 00:00:00.0","2020-12-31 00:00:00.0","2020-01-02 09:00:00.0","2020-12-31 18:00:00.0","서초구"
"자체","S191105113453339486","시설대관","다목적실","예약일시중지","서리풀문화포차-반포도서관 시설대관","무료","서리풀문화포차-반포도서관","제한없음","http://yeyak.seoul.go.kr/reservation/view.web?rsvsvcid=S191105113453339486","37.50248860511403","127.01251265096163","2019-11-04 00:00:00.0","2021-12-31 00:00:00.0","2019-11-04 09:00:00.0","2021-12-31 12:00:00.0","서초구"
"자체","S191023104342084919","시설대관","다목적실","예약일시중지","서리풀 문화포차-지방공기업평가원(중회의실)","무료","서리풀 문화포차-지방공기업평가원(중회의실)","제한없음","http://yeyak.seoul.go.kr/reservation/view.web?rsvsvcid=S191023104342084919","37.49155429301844","127.00920898164549","2019-11-04 00:00:00.0","2021-10-30 00:00:00.0","2019-11-04 00:00:00.0","2021-10-30 12:00:00.0","서초구"
"자체","S200102200537282513","시설대관","주민사랑방","접수중","서초구 서초1동주민센터 2층 주민사랑방","무료","서초구 서초1동 주민센터","성인","http://yeyak.seoul.go.kr/reservation/view.web?rsvsvcid=S200102200537282513","","","2020-01-02 00:00:00.0","2020-12-31 00:00:00.0","2020-01-02 09:00:00.0","2020-12-31 18:00:00.0","서초구"
"자체","S190116142843559396","시설대관","다목적실","접수중","서초구 내곡열린문화센터 지하2층 다목적실","무료","내곡동 주민센터 ","제한없음","http://yeyak.seoul.go.kr/reservation/view.web?rsvsvcid=S190116142843559396","37.46182487375571","127.05069715680274","2020-01-13 00:00:00.0","2020-12-31 00:00:00.0","2020-01-13 09:00:00.0","2020-12-31 18:00:00.0","서초구"
"자체","S191230101059634012","시설대관","다목적실","예약일시중지","반포3동주민센터 지하2층 문화교실1(다목적실) 유휴공간","무료","반포3동 주민센터 지하2층 문화교실1(다목적실)","제한없음","http://yeyak.seoul.go.kr/reservation/view.web?rsvsvcid=S191230101059634012","37.51204699576554","127.00561014664976","2020-01-01 00:00:00.0","2020-12-31 00:00:00.0","2020-01-03 09:00:00.0","2020-12-31 18:00:00.0","서초구"
"자체","S191230135424506714","시설대관","회의실","접수중","반포4동 주민센터 소회의실","무료","반포4동주민센터 소회의실","제한없음","http://yeyak.seoul.go.kr/reservation/view.web?rsvsvcid=S191230135424506714","37.497486881318245","127.00033021062798","2020-01-02 00:00:00.0","2020-12-31 00:00:00.0","2020-01-02 10:00:00.0","2020-12-31 18:00:00.0","서초구"
"자체","S200107134956541646","시설대관","강당","접수중","서초구 반포본동 강당 대관","무료","반포본동 주민센터 3층 강당","제한없음","http://yeyak.seoul.go.kr/reservation/view.web?rsvsvcid=S200107134956541646","37.50048461225488","126.9860944103207","2020-01-02 00:00:00.0","2020-12-31 00:00:00.0","2020-01-02 09:00:00.0","2020-12-31 18:00:00.0","서초구"
"자체","S191206135252613339","시설대관","강당","접수중","방배본동주민센터 3층 강당","무료","방배본동주민센터 3층 강당","제한없음","http://yeyak.seoul.go.kr/reservation/view.web?rsvsvcid=S191206135252613339","37.4941490261","126.98884571","2020-01-01 00:00:00.0","2020-12-31 00:00:00.0","2020-01-01 00:00:00.0","2020-12-31 00:00:00.0","서초구"
"자체","S191224155040914259","시설대관","회의실","접수중","서울시 서초구 방배3동주민센터 6F 회의실","무료","방배3동주민센터 6층 회의실","제한없음","http://yeyak.seoul.go.kr/reservation/view.web?rsvsvcid=S191224155040914259","37.4784395734","126.9999954777","2019-12-24 00:00:00.0","2020-12-31 00:00:00.0","2019-12-24 09:00:00.0","2020-12-31 18:00:00.0","서초구"
"자체","S200106135607576202","시설대관","기타","예약일시중지","서초동물사랑센터 교육실","무료","서초동물사랑센터 교육실","제한없음","http://yeyak.seoul.go.kr/reservation/view.web?rsvsvcid=S200106135607576202","37.47636469841427","127.03814441780936","2020-01-06 00:00:00.0","2020-12-31 00:00:00.0","2020-01-06 10:00:00.0","2020-12-31 18:00:00.0","서초구"
"자체","S191218203151460588","시설대관","강당","예약일시중지","반포3동주민센터 5층 대강당 유휴공간","무료","반포3동주민센터","제한없음","http://yeyak.seoul.go.kr/reservation/view.web?rsvsvcid=S191218203151460588","37.51204699576554","127.00561014664976","2020-01-01 00:00:00.0","2020-12-31 00:00:00.0","2020-01-03 09:00:00.0","2020-12-31 18:00:00.0","서초구"
"자체","S200102194513776505","시설대관","강의실","접수중","서초구 서초1동주민센터 2층 문화교실","무료","서초구 서초1동 주민센터>서초1동주민센터 2층 문화교실","제한없음","http://yeyak.seoul.go.kr/reservation/view.web?rsvsvcid=S200102194513776505","37.4901907247","127.0194669628","2020-01-02 00:00:00.0","2020-12-31 00:00:00.0","2020-01-02 14:00:00.0","2020-12-31 18:00:00.0","서초구"
"자체","S191223133922797499","시설대관","강의실","예약일시중지","양재2동 자치회관 프로그램4실","무료","양재2동자치회관 프로그램4실","제한없음","http://yeyak.seoul.go.kr/reservation/view.web?rsvsvcid=S191223133922797499","37.4706440308987","127.04128417206887","2020-01-02 00:00:00.0","2020-12-31 00:00:00.0","2020-01-02 09:00:00.0","2020-12-31 18:00:00.0","서초구"
"자체","S191230140551799705","시설대관","강의실","접수중","반포4동 주민센터 교양교실","무료","반포4동 주민센터 3층 교양교실","제한없음","http://yeyak.seoul.go.kr/reservation/view.web?rsvsvcid=S191230140551799705","","","2020-01-02 00:00:00.0","2020-12-31 00:00:00.0","2020-01-02 10:00:00.0","2020-12-31 18:00:00.0","서초구"
"자체","S191220092905940530","시설대관","강의실","접수중","서초구 서초2동 문화교실3","무료","서초2동주민센터 문화교실3","제한없음","http://yeyak.seoul.go.kr/reservation/view.web?rsvsvcid=S191220092905940530","37.49207099773131","127.0249494559503","2020-01-01 00:00:00.0","2020-12-31 00:00:00.0","2020-01-01 09:00:00.0","2020-12-31 18:00:00.0","서초구"
"자체","S191227093020363125","시설대관","강의실","접수중","서초구 잠원동주민센터 제5문화교실 ","무료","잠원동주민센터 문화교실","제한없음","http://yeyak.seoul.go.kr/reservation/view.web?rsvsvcid=S191227093020363125","37.514969158765155","127.0139806685506","2020-01-02 00:00:00.0","2020-12-31 00:00:00.0","2020-01-02 00:00:00.0","2020-12-31 00:00:00.0","서초구"
"자체","S191227100957210388","시설대관","강의실","접수중","서초구 잠원동주민센터 제2문화교실 ","무료","잠원동주민센터 문화교실","제한없음","http://yeyak.seoul.go.kr/reservation/view.web?rsvsvcid=S191227100957210388","37.514969158765155","127.0139806685506","2020-01-02 00:00:00.0","2020-12-31 00:00:00.0","2020-01-02 09:00:00.0","2020-12-31 18:00:00.0","서초구"
"자체","S200104145947094827","시설대관","주민사랑방","접수중","서초구 방배4동 주민센터 열린사랑방","무료","방배열린문화센터 1층","제한없음","http://yeyak.seoul.go.kr/reservation/view.web?rsvsvcid=S200104145947094827","37.489006347767386","126.99224318905575","2020-01-04 00:00:00.0","2020-12-31 00:00:00.0","2020-01-04 09:00:00.0","2020-12-31 18:00:00.0","서초구"
"자체","S191230133819510633","시설대관","다목적실","접수중","반포4동 주민센터 3층 다목적실","무료","서초구 반포4동 주민센터 3층 다목적실","제한없음","http://yeyak.seoul.go.kr/reservation/view.web?rsvsvcid=S191230133819510633","","","2020-01-02 00:00:00.0","2020-12-31 00:00:00.0","2020-01-02 10:00:00.0","2020-12-31 18:00:00.0","서초구"